<?xml version="1.0" encoding="utf-8"?>
<!-- Generator: Adobe Illustrator 23.1.1, SVG Export Plug-In . SVG Version: 6.00 Build 0)  -->
<svg version="1.1" id="Layer_1" xmlns="http://www.w3.org/2000/svg" xmlns:xlink="http://www.w3.org/1999/xlink" x="0px" y="0px"
	 viewBox="0 0 189 179" enable-background="new 0 0 189 179" xml:space="preserve">
<title>Group 3</title>
<desc>Created with Sketch.</desc>
<g>
	<path fill="#FFFFFF" d="M117.5,44l49.2,8.7c5.4,1,9.1,6.1,8.1,11.6l-10.4,59.1c-1,5.4-6.1,9.1-11.6,8.1l-49.2-8.7
		c-5.4-1-9.1-6.1-8.1-11.6l10.4-59.1C106.9,46.6,112,43,117.5,44z"/>
	<path fill="#DDDDDD" d="M116.8,47.9c-3.3-0.6-6.4,1.6-7,4.9l-10.4,59.1c-0.6,3.3,1.6,6.4,4.9,7l49.2,8.7c3.3,0.6,6.4-1.6,7-4.9
		l10.4-59.1c0.6-3.3-1.6-6.4-4.9-7L116.8,47.9z M117.5,44l49.2,8.7c5.4,1,9.1,6.1,8.1,11.6l-10.4,59.1c-1,5.4-6.1,9.1-11.6,8.1
		l-49.2-8.7c-5.4-1-9.1-6.1-8.1-11.6l10.4-59.1C106.9,46.6,112,43,117.5,44z"/>
	<path fill-rule="evenodd" clip-rule="evenodd" fill="#FFFFFF" d="M96.9,30.9l49.8,4.4c5.5,0.5,9.6,5.3,9.1,10.8l-5.2,59.8
		c-0.5,5.5-5.3,9.6-10.8,9.1L90,110.6c-5.5-0.5-9.6-5.3-9.1-10.8L86.1,40C86.6,34.5,91.4,30.4,96.9,30.9z"/>
	<path fill="#DDDDDD" d="M96.6,34.9c-3.3-0.3-6.2,2.2-6.5,5.5l-5.2,59.8c-0.3,3.3,2.2,6.2,5.5,6.5l49.8,4.4c3.3,0.3,6.2-2.2,6.5-5.5
		l5.2-59.8c0.3-3.3-2.2-6.2-5.5-6.5L96.6,34.9z M96.9,30.9l49.8,4.4c5.5,0.5,9.6,5.3,9.1,10.8l-5.2,59.8c-0.5,5.5-5.3,9.6-10.8,9.1
		L90,110.6c-5.5-0.5-9.6-5.3-9.1-10.8L86.1,40C86.6,34.5,91.4,30.4,96.9,30.9z"/>
	<path fill-rule="evenodd" clip-rule="evenodd" fill="#FC6D26" d="M101.3,49.3l4,0.3c1.1,0.1,1.9,1.1,1.8,2.2
		c-0.1,1.1-1.1,1.9-2.2,1.8l-4-0.3c-1.1-0.1-1.9-1.1-1.8-2.2C99.3,50,100.2,49.2,101.3,49.3z"/>
	<path fill-rule="evenodd" clip-rule="evenodd" fill="#E1DBF1" d="M117.5,70.8l4,0.3c1.1,0.1,1.9,1.1,1.8,2.2
		c-0.1,1.1-1.1,1.9-2.2,1.8l-4-0.3c-1.1-0.1-1.9-1.1-1.8-2.2C115.5,71.5,116.4,70.7,117.5,70.8z"/>
	<path fill-rule="evenodd" clip-rule="evenodd" fill="#FEE1D3" d="M129.6,81.9l4,0.3c1.1,0.1,1.9,1.1,1.8,2.2
		c-0.1,1.1-1.1,1.9-2.2,1.8l-4-0.3c-1.1-0.1-1.9-1.1-1.8-2.2C127.5,82.6,128.5,81.8,129.6,81.9z"/>
	<path fill-rule="evenodd" clip-rule="evenodd" fill="#FEF0E8" d="M129.5,71.9l4,0.3c1.1,0.1,1.9,1.1,1.8,2.2
		c-0.1,1.1-1.1,1.9-2.2,1.8l-4-0.3c-1.1-0.1-1.9-1.1-1.8-2.2C127.4,72.6,128.4,71.8,129.5,71.9z"/>
	<path fill-rule="evenodd" clip-rule="evenodd" fill="#EFEDF8" d="M113.3,50.4l8,0.7c1.1,0.1,1.9,1.1,1.8,2.2
		c-0.1,1.1-1.1,1.9-2.2,1.8l-8-0.7c-1.1-0.1-1.9-1.1-1.8-2.2C111.2,51.1,112.2,50.3,113.3,50.4z"/>
	<path fill-rule="evenodd" clip-rule="evenodd" fill="#FEF0E8" d="M99.7,79.3l2,0.2c1.1,0.1,1.9,1.1,1.8,2.2
		c-0.1,1.1-1.1,1.9-2.2,1.8l-2-0.2c-1.1-0.1-1.9-1.1-1.8-2.2C97.7,80,98.6,79.2,99.7,79.3z"/>
	<path fill-rule="evenodd" clip-rule="evenodd" fill="#FC6D26" d="M109.7,80.2l2,0.2c1.1,0.1,1.9,1.1,1.8,2.2
		c-0.1,1.1-1.1,1.9-2.2,1.8l-2-0.2c-1.1-0.1-1.9-1.1-1.8-2.2C107.6,80.9,108.6,80.1,109.7,80.2z"/>
	<path fill-rule="evenodd" clip-rule="evenodd" fill="#EEEEEE" d="M119.6,81l2,0.2c1.1,0.1,1.9,1.1,1.8,2.2
		c-0.1,1.1-1.1,1.9-2.2,1.8l-2-0.2c-1.1-0.1-1.9-1.1-1.8-2.2C117.6,81.8,118.5,80.9,119.6,81z"/>
	<path fill-rule="evenodd" clip-rule="evenodd" fill="#EEEEEE" d="M100.5,59.3l8,0.7c1.1,0.1,1.9,1.1,1.8,2.2
		c-0.1,1.1-1.1,1.9-2.2,1.8l-8-0.7c-1.1-0.1-1.9-1.1-1.8-2.2C98.4,60,99.4,59.2,100.5,59.3z"/>
	<path fill-rule="evenodd" clip-rule="evenodd" fill="#6B4FBB" d="M127.7,91.8l8,0.7c1.1,0.1,1.9,1.1,1.8,2.2
		c-0.1,1.1-1.1,1.9-2.2,1.8l-8-0.7c-1.1-0.1-1.9-1.1-1.8-2.2C125.7,92.5,126.6,91.7,127.7,91.8z"/>
	<path fill-rule="evenodd" clip-rule="evenodd" fill="#C3B8E3" d="M116.4,60.7l21.9,1.9c1.1,0.1,1.9,1.1,1.8,2.2
		c-0.1,1.1-1.1,1.9-2.2,1.8l-21.9-1.9c-1.1-0.1-1.9-1.1-1.8-2.2C114.3,61.4,115.3,60.6,116.4,60.7z"/>
	<path fill-rule="evenodd" clip-rule="evenodd" fill="#FEE1D3" d="M98.9,89.3l21.9,1.9c1.1,0.1,1.9,1.1,1.8,2.2
		c-0.1,1.1-1.1,1.9-2.2,1.8l-21.9-1.9c-1.1-0.1-1.9-1.1-1.8-2.2C96.8,90,97.8,89.2,98.9,89.3z"/>
	<path fill-rule="evenodd" clip-rule="evenodd" fill="#E1DBF1" d="M129.2,51.8l10,0.9c1.1,0.1,1.9,1.1,1.8,2.2
		c-0.1,1.1-1.1,1.9-2.2,1.8l-10-0.9c-1.1-0.1-1.9-1.1-1.8-2.2C127.2,52.5,128.1,51.7,129.2,51.8z"/>
	<path fill-rule="evenodd" clip-rule="evenodd" fill="#6B4FBB" d="M99.6,69.2l10,0.9c1.1,0.1,1.9,1.1,1.8,2.2
		c-0.1,1.1-1.1,1.9-2.2,1.8l-10-0.9c-1.1-0.1-1.9-1.1-1.8-2.2C97.5,70,98.5,69.2,99.6,69.2z"/>
	<path fill="#FFFFFF" d="M129,179h24c20-0.5,36-16.9,36-37c0-20.4-16.6-37-37-37c-1,0-2,0-3,0.1c-5-14.6-18.8-25.1-35-25.1
		c-5.3,0-10.5,1.1-15.3,3.3C92,73.5,80.8,67,68,67c-20.4,0-37,16.6-37,37c0,0.7,0,1.4,0.1,2.1C14.9,110.1,3,124.6,3,142
		c0,20.4,16.6,37,37,37c0.3,0,0.6,0,1,0L129,179z"/>
	<path fill-rule="evenodd" clip-rule="evenodd" fill="#FFFFFF" d="M129,177h23.9c18.9-0.5,34.1-16,34.1-35c0-19.3-15.7-35-35-35
		c-0.9,0-1.9,0-2.8,0.1l-1.6,0.1l-0.5-1.5C142.4,91.7,129.1,82,114,82c-5,0-9.9,1.1-14.5,3.1L98,85.8L97,84.4
		C90.6,74.9,79.8,69,68,69c-19.3,0-35,15.7-35,35c0,0.7,0,1.3,0.1,2l0.1,1.7l-1.6,0.4C16.1,111.9,5,125.8,5,142
		c0,19.3,15.7,35,35,35c0.3,0,0.6,0,1,0L129,177z"/>
	<path fill="#DDDDDD" d="M152,105c20.4,0,37,16.6,37,37c0,20-16,36.5-36.1,37H129l-88,0c-0.4,0-0.7,0-1,0c-20.4,0-37-16.6-37-37
		c0-17,11.6-31.8,28.1-35.9c0-0.7-0.1-1.4-0.1-2.1c0-20.4,16.6-37,37-37c12.4,0,23.8,6.1,30.7,16.3c4.8-2.2,10-3.3,15.3-3.3
		c15.9,0,30,10.1,35,25.1C150,105,151,105,152,105z M152.9,175c17.9-0.5,32.1-15.1,32.1-33c0-18.2-14.8-33-33-33
		c-0.9,0-1.8,0-2.6,0.1l-1.6,0.1c-0.9,0.1-1.8-0.5-2.1-1.4l-0.5-1.5C140.7,93,128.2,84,114,84c-4.7,0-9.4,1-13.7,3l-1.5,0.7
		c-0.9,0.4-1.9,0.1-2.5-0.7l-0.9-1.4C89.2,76.5,79,71,68,71c-18.2,0-33,14.8-33,33c0,0.6,0,1.2,0.1,1.9l0.1,1.7
		c0.1,1-0.6,1.8-1.5,2.1L32,110c-14.7,3.6-25,16.8-25,32c0,18.2,14.8,33,33,33c0.3,0,0.6,0,1,0l88.1,0L152.9,175z"/>
	<path fill="#FFFFFF" d="M70.3,104.4c2-0.9,4.2-1.5,6.4-1.7l0.5-1.7c0.8-2.9,3.8-4.7,6.7-3.9l2.9,0.8c1.4,0.4,2.6,1.3,3.3,2.6
		c0.7,1.3,0.9,2.8,0.5,4.2l-0.5,1.7c1.8,1.3,3.4,2.9,4.7,4.7l1.7-0.5c2.9-0.8,5.9,1,6.7,3.9l0.8,2.9c0.4,1.4,0.2,2.9-0.6,4.2
		c-0.7,1.3-1.9,2.2-3.3,2.6l-1.7,0.5c-0.1,1.1-0.3,2.2-0.6,3.3c-0.3,1.1-0.7,2.1-1.1,3.1l1.2,1.2c2.1,2.1,2.1,5.6,0,7.8l-2.1,2.1
		c-1,1-2.4,1.6-3.9,1.6s-2.9-0.6-3.9-1.6l-1.2-1.2c-2,0.9-4.2,1.5-6.4,1.7l-0.5,1.7c-0.8,2.9-3.8,4.7-6.7,3.9l-2.9-0.8
		c-1.4-0.4-2.6-1.3-3.3-2.6c-0.7-1.3-0.9-2.8-0.5-4.2l0.5-1.7c-1.8-1.3-3.4-2.9-4.7-4.7l-1.7,0.5c-2.9,0.8-5.9-1-6.7-3.9l-0.8-2.9
		c-0.4-1.4-0.2-2.9,0.6-4.2c0.7-1.3,1.9-2.2,3.3-2.6l1.7-0.5c0.1-1.1,0.3-2.2,0.6-3.3c0.3-1.1,0.7-2.1,1.1-3.1l-1.2-1.2
		c-2.1-2.1-2.1-5.6,0-7.8l2.1-2.1c1-1,2.4-1.6,3.9-1.6s2.9,0.6,3.9,1.6L70.3,104.4z"/>
	<path fill="#9388BA" d="M76.7,102.7l0.5-1.7c0.8-2.9,3.8-4.7,6.7-3.9l2.9,0.8c2.9,0.8,4.7,3.8,3.9,6.7l-0.5,1.7
		c1.8,1.3,3.4,2.9,4.7,4.7l1.7-0.5c2.9-0.8,5.9,1,6.7,3.9l0.8,2.9c0.4,1.4,0.2,2.9-0.6,4.2s-1.9,2.2-3.3,2.6l-1.7,0.5
		c-0.1,1.1-0.3,2.2-0.6,3.3c-0.3,1.1-0.7,2.1-1.1,3.1l1.2,1.2c2.1,2.1,2.1,5.6,0,7.8l-2.1,2.1c-1,1-2.4,1.6-3.9,1.6
		c-1.5,0-2.9-0.6-3.9-1.6l-1.2-1.2c-2,0.9-4.2,1.5-6.4,1.7l-0.5,1.7c-0.8,2.9-3.8,4.7-6.7,3.9l-2.9-0.8c-2.9-0.8-4.7-3.8-3.9-6.7
		l0.5-1.7c-1.8-1.3-3.4-2.9-4.7-4.7l-1.7,0.5c-2.9,0.8-5.9-1-6.7-3.9l-0.8-2.9c-0.4-1.4-0.2-2.9,0.6-4.2s1.9-2.2,3.3-2.6l1.7-0.5
		c0.1-1.1,0.3-2.2,0.6-3.3c0.3-1.1,0.7-2.1,1.1-3.1l-1.2-1.2c-2.1-2.1-2.1-5.6,0-7.8l2.1-2.1c1-1,2.4-1.6,3.9-1.6
		c1.5,0,2.9,0.6,3.9,1.6l1.2,1.2C72.3,103.5,74.5,102.9,76.7,102.7z M70.7,108.6c-0.8,0.3-1.7,0.2-2.2-0.4l-2.2-2.2
		c-0.3-0.3-0.7-0.4-1.1-0.4c-0.4,0-0.8,0.2-1.1,0.4l-2.1,2.1c-0.6,0.6-0.6,1.5,0,2.1l2.2,2.2c0.6,0.6,0.8,1.5,0.4,2.2l-0.6,1.3
		c-0.4,0.8-0.7,1.6-0.9,2.5c-0.2,0.9-0.4,1.7-0.5,2.6l-0.1,1.4c-0.1,0.8-0.7,1.5-1.5,1.7l-3,0.8c-0.4,0.1-0.7,0.4-0.9,0.7
		s-0.3,0.8-0.2,1.1l0.8,2.9c0.2,0.8,1,1.3,1.8,1.1l3-0.8c0.8-0.2,1.7,0.1,2.1,0.8l0.8,1.1c1,1.4,2.3,2.7,3.7,3.7l1.1,0.8
		c0.7,0.5,1,1.3,0.8,2.1l-0.8,3c-0.2,0.8,0.3,1.6,1.1,1.8l2.9,0.8c0.8,0.2,1.6-0.3,1.8-1.1l0.8-3c0.2-0.8,0.9-1.4,1.7-1.5l1.4-0.1
		c1.8-0.2,3.5-0.6,5.1-1.4l1.3-0.6c0.8-0.3,1.7-0.2,2.2,0.4l2.2,2.2c0.3,0.3,0.7,0.4,1.1,0.4c0.4,0,0.8-0.2,1.1-0.4l2.1-2.1
		c0.6-0.6,0.6-1.5,0-2.1l-2.2-2.2c-0.6-0.6-0.8-1.5-0.4-2.2l0.6-1.3c0.4-0.8,0.7-1.6,0.9-2.5c0.2-0.9,0.4-1.7,0.5-2.6l0.1-1.4
		c0.1-0.8,0.7-1.5,1.5-1.7l3-0.8c0.4-0.1,0.7-0.4,0.9-0.7c0.2-0.3,0.3-0.8,0.2-1.1l-0.8-2.9c-0.2-0.8-1-1.3-1.8-1.1l-3,0.8
		c-0.8,0.2-1.7-0.1-2.1-0.8l-0.8-1.1c-1-1.4-2.3-2.7-3.7-3.7l-1.1-0.8c-0.7-0.5-1-1.3-0.8-2.1l0.8-3c0.2-0.8-0.3-1.6-1.1-1.8
		l-2.9-0.8c-0.8-0.2-1.6,0.3-1.8,1.1l-0.8,3c-0.2,0.8-0.9,1.4-1.7,1.5l-1.4,0.1c-1.8,0.2-3.5,0.6-5.1,1.4
		C71.9,108,71.5,108.2,70.7,108.6z"/>
	<path fill="#FFFFFF" d="M79.1,122.7c3.8,2.2,5.1,7.1,2.9,10.9c-2.2,3.8-7.1,5.1-10.9,2.9c-3.8-2.2-5.1-7.1-2.9-10.9
		S75.2,120.5,79.1,122.7z"/>
	<path fill="#6B4FBB" d="M74.1,130c-3.8-2.2-5.1-7.1-2.9-10.9c2.2-3.8,7.1-5.1,10.9-2.9c3.8,2.2,5.1,7.1,2.9,10.9
		C82.8,130.9,77.9,132.2,74.1,130z M76.1,126.5c1.9,1.1,4.4,0.4,5.5-1.5s0.4-4.4-1.5-5.5c-1.9-1.1-4.4-0.4-5.5,1.5
		S74.2,125.4,76.1,126.5z"/>
	<path fill="#FFFFFF" d="M112.8,130.8c1.6-0.7,3.3-1.2,5.1-1.4l0.4-1.4c0.6-2.4,3.1-3.8,5.4-3.2l2.3,0.6c1.1,0.3,2.1,1,2.7,2.1
		c0.6,1,0.7,2.2,0.4,3.4l-0.4,1.4c1.5,1,2.7,2.3,3.7,3.8l1.4-0.4c2.3-0.6,4.8,0.8,5.4,3.1l0.6,2.3c0.3,1.1,0.1,2.3-0.4,3.4
		s-1.5,1.8-2.7,2.1l-1.4,0.4c-0.1,0.9-0.2,1.8-0.5,2.6c-0.2,0.9-0.5,1.7-0.9,2.5l1,1c1.7,1.7,1.7,4.5,0,6.3l-1.7,1.7
		c-0.8,0.8-1.9,1.3-3.1,1.3s-2.3-0.5-3.1-1.3l-1-1c-1.6,0.7-3.3,1.2-5.1,1.4l-0.4,1.4c-0.6,2.4-3.1,3.8-5.4,3.2l-2.3-0.6
		c-1.1-0.3-2.1-1-2.7-2.1c-0.6-1-0.7-2.2-0.4-3.4l0.4-1.4c-1.4-1-2.7-2.3-3.7-3.8l-1.4,0.4c-2.3,0.6-4.8-0.8-5.4-3.1l-0.6-2.3
		c-0.3-1.1-0.1-2.3,0.4-3.4c0.6-1,1.6-1.8,2.7-2.1l1.4-0.4c0.1-0.9,0.2-1.8,0.5-2.6c0.2-0.9,0.5-1.7,0.9-2.5l-1-1
		c-1.7-1.7-1.7-4.5,0-6.3l1.7-1.7c0.8-0.8,1.9-1.3,3.1-1.3c1.2,0,2.3,0.5,3.1,1.3L112.8,130.8z"/>
	<path fill="#F99C73" d="M117.6,129l0.3-1.1c0.7-2.6,3.3-4.1,5.9-3.4l2.3,0.6c2.6,0.7,4.1,3.3,3.4,5.9l-0.3,1.1
		c1.3,1,2.5,2.1,3.4,3.5l1.1-0.3c2.6-0.7,5.2,0.8,5.9,3.4l0.6,2.3c0.3,1.2,0.1,2.5-0.5,3.6c-0.6,1.1-1.7,1.9-2.9,2.2l-1.1,0.3
		c-0.1,0.8-0.2,1.6-0.5,2.4s-0.5,1.6-0.8,2.3l0.8,0.8c1.9,1.9,1.9,4.9,0,6.8l-1.7,1.7c-0.9,0.9-2.1,1.4-3.4,1.4
		c-1.3,0-2.5-0.5-3.4-1.4l-0.8-0.8c-1.5,0.7-3.1,1.1-4.7,1.3l-0.3,1.1c-0.7,2.6-3.3,4.1-5.9,3.4l-2.3-0.6c-2.6-0.7-4.1-3.3-3.4-5.9
		l0.3-1.1c-1.3-1-2.5-2.1-3.4-3.5l-1.1,0.3c-2.6,0.7-5.2-0.8-5.9-3.4l-0.6-2.3c-0.3-1.2-0.1-2.5,0.5-3.6c0.6-1.1,1.7-1.9,2.9-2.2
		l1.1-0.3c0.1-0.8,0.2-1.6,0.5-2.4c0.2-0.8,0.5-1.6,0.8-2.3l-0.8-0.8c-1.9-1.9-1.9-4.9,0-6.8l1.7-1.7c0.9-0.9,2.1-1.4,3.4-1.4
		c1.3,0,2.5,0.5,3.4,1.4l0.8,0.8C114.4,129.7,116,129.2,117.6,129z M113.3,134.5c-0.8,0.4-1.7,0.2-2.3-0.4l-1.8-1.8
		c-0.1-0.1-0.3-0.2-0.6-0.2c-0.2,0-0.4,0.1-0.6,0.2l-1.7,1.7c-0.3,0.3-0.3,0.9,0,1.2l1.8,1.8c0.6,0.6,0.7,1.5,0.4,2.2l-0.5,1
		c-0.3,0.6-0.5,1.3-0.7,2c-0.2,0.7-0.3,1.4-0.4,2.1l-0.1,1.1c-0.1,0.8-0.7,1.5-1.5,1.7l-2.4,0.7c-0.2,0.1-0.4,0.2-0.5,0.4
		c-0.1,0.2-0.1,0.4-0.1,0.6l0.6,2.3c0.1,0.4,0.5,0.7,1,0.6l2.4-0.7c0.8-0.2,1.7,0.1,2.2,0.8l0.6,0.9c0.8,1.1,1.8,2.1,2.9,2.9
		l0.9,0.6c0.7,0.5,1,1.3,0.8,2.1l-0.7,2.5c-0.1,0.4,0.1,0.9,0.6,1l2.3,0.6c0.4,0.1,0.9-0.1,1-0.6l0.7-2.5c0.2-0.8,0.9-1.4,1.7-1.5
		l1.1-0.1c1.4-0.1,2.7-0.5,4-1.1l1-0.5c0.8-0.4,1.7-0.2,2.3,0.4l1.8,1.8c0.1,0.1,0.3,0.2,0.6,0.2c0.2,0,0.4-0.1,0.6-0.2l1.7-1.7
		c0.3-0.3,0.3-0.9,0-1.2l-1.8-1.8c-0.6-0.6-0.7-1.5-0.4-2.2l0.5-1c0.3-0.6,0.5-1.3,0.7-2c0.2-0.7,0.3-1.4,0.4-2.1l0.1-1.1
		c0.1-0.8,0.7-1.5,1.5-1.7l2.4-0.7c0.2-0.1,0.4-0.2,0.5-0.4c0.1-0.2,0.1-0.4,0.1-0.6l-0.6-2.3c-0.1-0.4-0.5-0.7-1-0.6l-2.4,0.7
		c-0.8,0.2-1.7-0.1-2.2-0.8l-0.6-0.9c-0.8-1.1-1.8-2.1-2.9-2.9l-0.9-0.6c-0.7-0.5-1-1.3-0.8-2.1l0.7-2.5c0.1-0.4-0.1-0.9-0.6-1
		l-2.3-0.6c-0.4-0.1-0.9,0.1-1,0.6l-0.7,2.5c-0.2,0.8-0.9,1.4-1.7,1.5l-1.1,0.1c-1.4,0.1-2.7,0.5-4,1.1
		C114.3,134.1,114,134.2,113.3,134.5z"/>
	<path fill="#FFFFFF" d="M119.8,145.6c3.1,1.8,4.1,5.7,2.3,8.8c-1.8,3.1-5.7,4.2-8.8,2.4c-3.1-1.8-4.1-5.7-2.3-8.8
		C112.9,144.9,116.8,143.8,119.8,145.6z"/>
	<path fill="#FC6D26" d="M115.9,151.4c-3.1-1.8-4.1-5.7-2.3-8.8c1.8-3.1,5.7-4.2,8.8-2.4c3.1,1.8,4.1,5.7,2.3,8.8
		S118.9,153.2,115.9,151.4z M117.5,148.7c1.5,0.9,3.5,0.3,4.4-1.2s0.4-3.5-1.1-4.4s-3.5-0.3-4.4,1.2
		C115.4,145.8,115.9,147.8,117.5,148.7z"/>
	<path fill-rule="evenodd" clip-rule="evenodd" fill="#FFFFFF" d="M63.7,34.3l4.2,9.6c0.4,1,0,2.2-1,2.6c-0.2,0.1-0.4,0.1-0.6,0.2
		l-8.5,0.9C52.7,53.9,44.8,58,36,58C20.5,58,8,45.5,8,30S20.5,2,36,2s28,12.5,28,28C64,31.4,63.9,32.9,63.7,34.3z"/>
	<path fill="#DDDDDD" d="M69.7,43c0.9,2,0,4.4-2.1,5.3c-0.4,0.2-0.8,0.3-1.2,0.3l-7.7,0.8C53.2,56.1,44.9,60,36,60
		C19.4,60,6,46.6,6,30S19.4,0,36,0s30,13.4,30,30c0,1.3-0.1,2.7-0.3,4L69.7,43z M61.7,34c0.2-1.3,0.3-2.6,0.3-4C62,15.6,50.4,4,36,4
		S10,15.6,10,30s11.6,26,26,26c8,0,15.3-3.6,20.3-9.7l0.5-0.6l9.3-1l-4.2-9.6l-0.2-0.5L61.7,34z"/>
	<path fill="#31AF64" d="M36.5,44.5c-7.7,0-14-6.3-14-14s6.3-14,14-14s14,6.3,14,14S44.2,44.5,36.5,44.5z M36.5,41.5
		c6.1,0,11-4.9,11-11s-4.9-11-11-11s-11,4.9-11,11S30.4,41.5,36.5,41.5z"/>
	<path fill="#31AF64" d="M35.2,31.8l-1.9-1.9c-0.6-0.6-1.5-0.6-2.1,0c-0.3,0.3-0.4,0.6-0.4,1s0.2,0.8,0.4,1l2.9,2.9l0,0
		c0.5,0.5,1.4,0.5,2,0l5.8-5.8c0.3-0.3,0.4-0.6,0.4-1s-0.1-0.7-0.4-1c-0.3-0.3-0.6-0.4-1-0.4s-0.7,0.1-1,0.4L35.2,31.8z"/>
</g>
</svg>
